<?xml version="1.0" standalone="no"?>
<!DOCTYPE svg PUBLIC "-//W3C//DTD SVG 1.1//EN" "http://www.w3.org/Graphics/SVG/1.1/DTD/svg11.dtd" >
<svg xmlns="http://www.w3.org/2000/svg">
<metadata>Generated by IcoMoon</metadata>
<defs>
<font id="icomoon" horiz-adv-x="1024">
<font-face units-per-em="1024" ascent="960" descent="-64" />
<missing-glyph horiz-adv-x="1024" />
<glyph unicode="&#x20;" horiz-adv-x="512" d="" />
<glyph unicode="&#xe900;" glyph-name="eye-solid" horiz-adv-x="1536" d="M1526.678 486.925c-142.495 280.764-428.013 470.404-758.086 473.072l-0.36 0.002c-330.614-2.512-616.341-192.191-756.692-468.212l-2.244-4.863c-5.851-11.329-9.281-24.726-9.281-38.925s3.43-27.597 9.508-39.41l-0.226 0.484c142.568-280.906 428.311-470.599 758.601-473.073l0.334-0.002c330.433 2.716 615.938 192.363 756.203 468.26l2.243 4.863c5.843 11.322 9.269 24.712 9.269 38.901s-3.426 27.579-9.495 39.386l0.226-0.485zM768.232 64.006c-212.087 0-384.018 171.931-384.018 384.018s171.931 384.018 384.018 384.018c212.087 0 384.018-171.931 384.018-384.018v0c0-212.087-171.931-384.018-384.018-384.018v0zM768.232 703.988c-24.172-0.358-47.346-4.034-69.276-10.591l1.799 0.462c15.486-20.873 24.789-47.14 24.789-75.581 0-70.48-57.135-127.615-127.615-127.615-28.44 0-54.708 9.304-75.925 25.033l0.344-0.244c-5.66-20.058-8.914-43.094-8.914-66.889 0-141.067 114.358-255.425 255.425-255.425s255.425 114.358 255.425 255.425c0 141.067-114.358 255.425-255.425 255.425-0.221 0-0.442 0-0.662-0.001h0.034z" />
<glyph unicode="&#xe901;" glyph-name="Group-669" d="M320.020 448c-0.071-1.098-0.112-2.381-0.112-3.673 0-33.389 27.068-60.457 60.457-60.457 1.279 0 2.548 0.040 3.807 0.118l-0.172-0.009h256c35.312 0.093 63.91 28.705 63.98 64.014v0.007c0.070 1.086 0.109 2.354 0.109 3.632 0 33.389-27.068 60.457-60.457 60.457-1.278 0-2.546-0.040-3.804-0.118l0.172 0.009h-256c-35.298-0.093-63.887-28.682-63.98-63.971v-0.009zM0 639.98c-0.010 0.93-0.015 2.028-0.015 3.128 0 175.023 141.884 316.908 316.908 316.908 1.1 0 2.199-0.006 3.296-0.017l-0.167 0.001h384c0.918 0.010 2.002 0.015 3.087 0.015 175.023 0 316.908-141.884 316.908-316.908 0-1.1-0.006-2.198-0.017-3.295l0.001 0.167v-640c0.070-1.086 0.109-2.354 0.109-3.632 0-33.389-27.068-60.457-60.457-60.457-1.278 0-2.546 0.040-3.804 0.118l0.172-0.009h-640c-0.93-0.010-2.028-0.015-3.128-0.015-175.023 0-316.908 141.884-316.908 316.908 0 1.1 0.006 2.199 0.017 3.296l-0.001-0.167z" />
<glyph unicode="&#xe902;" glyph-name="Menu" horiz-adv-x="1029" d="M13.261 83.61l386.253 386.253-399.36 372.378 89.651 96.41 402.842-375.654 389.478 389.478 93.082-93.082-386.253-386.253 399.36-372.531-89.754-96.256-402.739 375.654-389.478-389.478z" />
<glyph unicode="&#xe903;" glyph-name="Menu-1" d="M0-12.8v131.686h512v-131.686zM0 382.208v131.584h1024v-131.635zM0 777.165v131.635h1024v-131.635z" />
<glyph unicode="&#xe904;" glyph-name="users-solid" horiz-adv-x="1463" d="M219.407 521.143c0.051 0 0.112 0 0.172 0 80.791 0 146.286 65.494 146.286 146.286s-65.494 146.286-146.286 146.286c-80.791 0-146.286-65.494-146.286-146.286v0c0.171-80.662 65.465-146.017 146.088-146.286h0.026zM1243.407 521.143c80.791 0 146.286 65.494 146.286 146.286s-65.494 146.286-146.286 146.286c-80.791 0-146.286-65.494-146.286-146.286v0c0.171-80.722 65.563-146.114 146.269-146.286h0.017zM1316.701 447.849h-146.415c-0.048 0-0.104 0-0.161 0-40.172 0-76.551-16.241-102.93-42.515l0.005 0.005c92.172-50.895 156.983-141.618 171.445-248.334l0.192-1.727h150.899c40.479 0 73.294 32.815 73.294 73.294v0 73.294c-0.245 80.727-65.707 146.083-146.451 146.156h-0.007zM731.558 447.849c141.391 0 256.011 114.62 256.011 256.011s-114.62 256.011-256.011 256.011c-141.391 0-256.011-114.62-256.011-256.011v0c0.025-141.301 114.577-255.838 255.881-255.838v0zM907.118 374.555h-18.97c-45.665-23.057-99.54-36.56-156.568-36.56s-110.903 13.503-158.601 37.486l2.033-0.926h-18.97c-145.395-0.049-263.248-117.902-263.297-263.293v-65.839c0-60.599 49.126-109.725 109.725-109.725h658.135c60.599 0 109.725 49.126 109.725 109.725v0 66.137c-0.049 145.411-117.927 263.273-263.338 263.297h-0.002zM395.786 405.166c-26.373 26.269-62.753 42.51-102.925 42.51-0.056 0-0.113 0-0.169 0h-146.406c-80.602-0.17-145.919-65.367-146.286-145.906v-73.329c0-40.479 32.815-73.294 73.294-73.294h150.468c14.845 108.438 79.708 199.122 170.174 249.187l1.721 0.874z" />
<glyph unicode="&#xe905;" glyph-name="vest-patches-solid" horiz-adv-x="896" d="M874.512 480.199l-106.493 159.796v256.019c0 35.338-28.647 63.986-63.986 63.986v0h-64.023c-9.919 0-19.135-3.011-26.785-8.168l0.171 0.108-50.004-33.174c-32.407-21.935-72.364-35.016-115.377-35.016s-82.97 13.082-116.111 35.484l0.734-0.468-50.004 33.174c-7.479 5.048-16.695 8.059-26.614 8.059h-64.023c-35.338 0-63.986-28.647-63.986-63.986v0-256.019l-106.531-159.796c-13.452-19.942-21.475-44.513-21.479-70.957v-409.256c0-35.338 28.647-63.986 63.986-63.986h320.005v447.977c0.004 7.243 1.212 14.203 3.433 20.692l-0.134-0.45 26.989 80.966-113.878 341.708c42.453-24.455 93.3-39.004 147.521-39.321h0.093c54.309 0.303 105.159 14.84 149.090 40.065l-1.476-0.781-147.614-442.879v-448.014h384.141c35.225 0.149 63.724 28.739 63.724 63.985 0 0.013 0 0.027 0 0.040v-0.002 409.255c0 0.045 0 0.098 0 0.151 0 26.38-7.98 50.897-21.657 71.267l0.291-0.46z" />
<glyph unicode="&#xe906;" glyph-name="web" d="M153.61 806.39c85.422 94.598 208.504 153.791 345.412 153.791 4.57 0 9.125-0.066 13.664-0.197l-0.667 0.015c3.872 0.116 8.427 0.182 12.997 0.182 136.908 0 259.99-59.194 345.051-153.384l0.362-0.407c94.598-85.428 153.791-208.516 153.791-345.429 0-4.564-0.066-9.114-0.196-13.646l0.015 0.666c0.115-3.867 0.181-8.416 0.181-12.981 0-136.913-59.193-260.001-153.384-345.067l-0.407-0.362c-85.428-94.598-208.516-153.791-345.429-153.791-4.564 0-9.114 0.066-13.646 0.196l0.666-0.015c-3.867-0.115-8.416-0.181-12.981-0.181-136.913 0-260.001 59.193-345.067 153.384l-0.362 0.407c-93.881 102.419-153.61 213.377-153.61 358.41-0.116 3.872-0.182 8.427-0.182 12.997 0 136.908 59.194 259.99 153.384 345.051l0.407 0.362zM580.286 38.381q51.19 0 127.995 76.92c33.538 50.743 55.195 112.036 59.666 178.042l0.062 1.143c0.003 0.36 0.005 0.785 0.005 1.21 0 39.648-16.329 75.481-42.629 101.143l-0.029 0.028c-27.233 30.956-66.725 50.568-110.81 51.189l-0.109 0.001h-85.381c-28.101 1.723-54.298 7.838-78.591 17.674l1.671-0.598c-15.774 14.237-25.644 34.754-25.644 57.577 0 0.757 0.011 1.511 0.032 2.262l-0.003-0.11c0.265 13.859 6.848 26.128 16.98 34.080l0.096 0.073c9.088 8.708 20.749 14.799 33.731 17.022l0.383 0.054c17.844-1.83 33.118-11.475 42.521-25.408l0.131-0.207c17.076-8.538 25.614-17.076 34.114-17.076 1.616-0.181 3.49-0.284 5.388-0.284 10.736 0 20.702 3.298 28.94 8.935l-0.176-0.114c5.522 8.061 8.818 18.025 8.818 28.759 0 1.886-0.102 3.749-0.3 5.582l0.020-0.227c-3.657 33.919-19.312 63.624-42.569 85.267l-0.083 0.076c25.95 46.829 41.672 102.493 42.801 161.729l0.005 0.342c-0.634 9.165-7.911 16.443-17.019 17.073l-0.057 0.003c-19.887 8.173-42.973 14.188-67.045 16.962l-1.221 0.114c-82.691-1.992-159.112-27.194-223.468-69.306l1.63 1.001c-47.207-39.678-77.001-98.756-77.001-164.792 0-2.073 0.029-4.138 0.088-6.197l-0.007 0.303c-0.018-1.031-0.028-2.248-0.028-3.468 0-62.444 26.195-118.77 68.196-158.588l0.098-0.092c41.567-41.565 98.756-67.507 162.004-68.265l0.144-0.001v-34.114c-0.096-1.718-0.151-3.728-0.151-5.751 0-31.323 13.143-59.576 34.216-79.546l0.050-0.047c17.93-25.813 44.83-44.313 76.103-51.043l0.817-0.147v-153.687c0-8.538 0-8.538 8.538-17.076s8.538-8.423 17.076-8.423z" />
<glyph unicode="&#xe907;" glyph-name="wrench-solid" d="M1015.464 741.804c-2.751 10.431-12.1 17.997-23.217 17.997-6.659 0-12.684-2.715-17.028-7.098l-148.711-148.602-135.778 22.63-22.63 135.778 148.709 148.709c4.327 4.347 7.001 10.342 7.001 16.961 0 11.253-7.729 20.7-18.168 23.323l-0.166 0.035c-21.043 5.529-45.2 8.704-70.1 8.704-158.301 0-286.63-128.329-286.63-286.63 0-33.062 5.598-64.817 15.898-94.369l-0.61 2.011-426.585-426.767c-22.272-23.003-36-54.396-36-88.996 0-70.695 57.31-128.005 128.005-128.005 34.599 0 65.993 13.727 89.030 36.033l-0.034-0.033 426.44 426.44c27.514-9.658 59.237-15.237 92.262-15.237 158.482 0 286.957 128.475 286.957 286.957 0 24.933-3.18 49.123-9.156 72.188l0.438-1.993zM128.005 16.021c-26.501 0-47.984 21.483-47.984 47.984s21.483 47.984 47.984 47.984c26.501 0 47.984-21.483 47.984-47.984v0c-0.021-26.492-21.491-47.963-47.982-47.984h-0.002z" />
<glyph unicode="&#xea90;" glyph-name="facebook" d="M608 768h160v192h-160c-123.514 0-224-100.486-224-224v-96h-128v-192h128v-512h192v512h160l32 192h-192v96c0 17.346 14.654 32 32 32z" />
<glyph unicode="&#xea92;" glyph-name="instagram" d="M512 867.8c136.8 0 153-0.6 206.8-3 50-2.2 77-10.6 95-17.6 23.8-9.2 41-20.4 58.8-38.2 18-18 29-35 38.4-58.8 7-18 15.4-45.2 17.6-95 2.4-54 3-70.2 3-206.8s-0.6-153-3-206.8c-2.2-50-10.6-77-17.6-95-9.2-23.8-20.4-41-38.2-58.8-18-18-35-29-58.8-38.4-18-7-45.2-15.4-95-17.6-54-2.4-70.2-3-206.8-3s-153 0.6-206.8 3c-50 2.2-77 10.6-95 17.6-23.8 9.2-41 20.4-58.8 38.2-18 18-29 35-38.4 58.8-7 18-15.4 45.2-17.6 95-2.4 54-3 70.2-3 206.8s0.6 153 3 206.8c2.2 50 10.6 77 17.6 95 9.2 23.8 20.4 41 38.2 58.8 18 18 35 29 58.8 38.4 18 7 45.2 15.4 95 17.6 53.8 2.4 70 3 206.8 3zM512 960c-139 0-156.4-0.6-211-3-54.4-2.4-91.8-11.2-124.2-23.8-33.8-13.2-62.4-30.6-90.8-59.2-28.6-28.4-46-57-59.2-90.6-12.6-32.6-21.4-69.8-23.8-124.2-2.4-54.8-3-72.2-3-211.2s0.6-156.4 3-211c2.4-54.4 11.2-91.8 23.8-124.2 13.2-33.8 30.6-62.4 59.2-90.8 28.4-28.4 57-46 90.6-59 32.6-12.6 69.8-21.4 124.2-23.8 54.6-2.4 72-3 211-3s156.4 0.6 211 3c54.4 2.4 91.8 11.2 124.2 23.8 33.6 13 62.2 30.6 90.6 59s46 57 59 90.6c12.6 32.6 21.4 69.8 23.8 124.2 2.4 54.6 3 72 3 211s-0.6 156.4-3 211c-2.4 54.4-11.2 91.8-23.8 124.2-12.6 34-30 62.6-58.6 91-28.4 28.4-57 46-90.6 59-32.6 12.6-69.8 21.4-124.2 23.8-54.8 2.6-72.2 3.2-211.2 3.2v0zM512 711c-145.2 0-263-117.8-263-263s117.8-263 263-263 263 117.8 263 263c0 145.2-117.8 263-263 263zM512 277.4c-94.2 0-170.6 76.4-170.6 170.6s76.4 170.6 170.6 170.6c94.2 0 170.6-76.4 170.6-170.6s-76.4-170.6-170.6-170.6zM846.8 721.4c0-33.91-27.49-61.4-61.4-61.4s-61.4 27.49-61.4 61.4c0 33.91 27.49 61.4 61.4 61.4s61.4-27.49 61.4-61.4z" />
<glyph unicode="&#xea96;" glyph-name="twitter" d="M1024 733.6c-37.6-16.8-78.2-28-120.6-33 43.4 26 76.6 67.2 92.4 116.2-40.6-24-85.6-41.6-133.4-51-38.4 40.8-93 66.2-153.4 66.2-116 0-210-94-210-210 0-16.4 1.8-32.4 5.4-47.8-174.6 8.8-329.4 92.4-433 219.6-18-31-28.4-67.2-28.4-105.6 0-72.8 37-137.2 93.4-174.8-34.4 1-66.8 10.6-95.2 26.2 0-0.8 0-1.8 0-2.6 0-101.8 72.4-186.8 168.6-206-17.6-4.8-36.2-7.4-55.4-7.4-13.6 0-26.6 1.4-39.6 3.8 26.8-83.4 104.4-144.2 196.2-146-72-56.4-162.4-90-261-90-17 0-33.6 1-50.2 3 93.2-59.8 203.6-94.4 322.2-94.4 386.4 0 597.8 320.2 597.8 597.8 0 9.2-0.2 18.2-0.6 27.2 41 29.4 76.6 66.4 104.8 108.6z" />
</font></defs></svg>